{
  "parameters": {
    "api": {
      "baseUrl": "https://papertrailapp.com/api/v1/",
      "http": {
        "headers": {
          "X-Papertrail-Token": {
            "attr": "token"
          }
        }
      },
      "pagination": {
        "method": "response.param",
        "responseParam": "min_id",
        "queryParam": "max_id",
        "includeParams": true
      }
    },
    "config": {
      "token": "{MY_TOKEN}",
      "jobs": [
        {
          "endpoint": "events/search.json",
          "params": {
            "min_time": {
              "function": "strtotime",
              "args": [
                "5 days ago"
              ]
            },
            "max_time": {
              "function": "strtotime",
              "args": [
                "now"
              ]
            },
            "q": "\"Error deleting primary key of table\" OR \"Modifying primary key of table\" OR \"Error changing primary key of table\""
          },
          "dataType": "events"
        }
      ]
    }
  }
}