{
    "parameters": {
        "api": {
            "baseUrl": "https://www.meterconnex.com/api/v1/",
            "authentication": {
                "type": "basic"
            }
        },
        "config": {
            "id": "MeterConnex",
            "username": "{USERNAME}",
            "#password": "{PWD}",
            "debug": true,
            "incrementalOutput": false,
            "filter": "id==10108658",
            "start": {
                "function": "date",
                "args": [
                    "Y-m-d",
                    {
                        "function": "strtotime",
                        "args": [
                            "-1 day"
                        ]
                    }
                ]
            },
            "end": {
                "function": "date",
                "args": [
                    "Y-m-d",
                    {
                        "function": "strtotime",
                        "args": [
                            "-1 day"
                        ]
                    }
                ]
            },
            "http": {
                "headers": {
                    "Accept": "application/json"
                }
            },
            "jobs": [{
                "endpoint": "meters",
                "dataType": "meters",
                "dataField": "meters",
                "method": "GET",
                "children": [{
                        "dataField": ".",
                        "dataType": "lastreaddate",
                        "endpoint": "meters/{id}/lastreaddate",
                        "recursionFilter": "id==10108658",
                        "placeholders": {
                            "id": "id"
                        }
                    },
                    {
                        "dataField": ".",
                        "dataType": "firstreaddate",
                        "endpoint": "meters/{id}/firstreaddate",
                        "recursionFilter": "id==10108658",
                        "placeholders": {
                            "id": "id"
                        }
                    },
                    {
                        "dataField": ".",
                        "dataType": "dailytotals",
                        "endpoint": "meters/{id}/dailytotals",
                        "recursionFilter": "id==10108658",
                        "placeholders": {
                            "id": "id"
                        },
                        "params": {
                            "start": "2018-04-01",
                            "end": "2018-04-01"
                        }
                    },
                    {
                        "dataField": ".",
                        "dataType": "intervaldata",
                        "endpoint": "meters/{id}/intervaldata",
                        "recursionFilter": "id==10108658",
                        "placeholders": {
                            "id": "id"
                        },
                        "params": {
                            "start": "2018-04-01",
                            "end": "2018-04-01"
                        }
                    }
                ]
            }]
        }
    }
}