{
    "parameters": {
        "api": {
            "baseUrl": "https://api.flexport.com/"
        },
        "config": {
            "id": "flexport",
            "debug": 1,
            "http": {
                "headers": {
                    "Accept": "application/vnd.flexport.v1",
                    "Authorization": {
                        "attr": "#token"
                    },
                    "Content-Type": "application/json"
                }
            },
            "#token": "{FLEXPORT TOKEN}",
            "jobs": [{
                "endpoint": "invoices",
                "dataType": "invoices"
            }, {
                "endpoint": "shipments",
                "dataType": "shipments"
            }, {
                "endpoint": "products",
                "dataType": "products"
            }, {
                "endpoint": "network",
                "dataType": "network"
            }, {
                "endpoint": "ports",
                "dataType": "ports"
            }]
        }
    }
}