{
  "parameters": {
    "api": {
      "baseUrl": {
        "function": "concat",
        "args": [
          "https://api.surveymonkey.net/v3/responses/",
          {
            "attr": "response_id"
          },
          "/"
        ]
      },
      "authentication": {
        "type": "url.query",
        "query": {
          "api_key": {
            "attr": "api_key"
          }
        }
      },
      "http": {
        "requiredHeaders": [
          "authorization",
          "Content-Type"
        ]
      }
    },
    "config": {
      "id": "surveymonkey_iterate",
      "debug": 1,
      "response_id": "",
      "http": {
        "headers": {
          "authorization": {
            "function": "concat",
            "args": [
              {
                "attr": "bearer"
              },
              {
                "attr": "token"
              }
            ]
          },
          "Content-Type": "application/json"
        }
      },
      "api_key": "",
      "bearer": "bearer ",
      "token": "{YOUR TOKEN}",
      "jobs": [
        {
          "endpoint": "details",
          "dataType": "response_detail",
          "dataField": "."
        }
      ]
    },
    "iterations": [
      {
        "response_id": "5176940849"
      },
      {
        "response_id": "5176983925"
      }
    ]
  }
}